1,1604583,1593777,1630439
3,540346,516250,545630
6,271343,269091,274373
9,181125,177946,184420
12,136041,134471,140002
15,110998,108551,111935
18,97239,90679,104810
21,86263,81216,88465
24,74723,70222,77026
27,74790,64417,77615
30,67412,60278,69469
33,63077,54373,66604
36,55361,53179,60970
39,55002,48906,55979
42,46910,44848,53597
45,45797,42788,50078
48,46278,41326,47041
51,45919,41729,46552
54,43430,40513,43999
57,43304,42702,43367
60,40959,40616,41461
63,39332,39199,39710
66,39152,38040,39618
69,37617,37253,38849
72,37691,36182,38334
75,39185,38357,39792
78,38286,37436,38350
81,41012,40123,41355
84,40110,38878,40644
87,38365,37933,39164
90,40093,39375,40332
93,39289,38841,39939
96,38366,38002,38880
99,41223,40637,41886
102,40696,40132,40821
105,41366,41351,41803
108,40579,40438,40900
111,40625,40462,41149
114,44700,44255,46620
117,46142,44380,46289
120,43501,43310,44401
123,47003,46915,47399
126,47162,46821,47353
