1,856,840,856
3,323,320,326
6,219,191,226
9,122,118,169
12,129,128,157
15,115,114,142
18,120,120,122
21,127,99,130
24,114,106,116
27,91,82,93
30,104,103,105
33,99,92,101
36,88,89,98
39,83,84,84
42,88,89,90
45,87,87,89
48,86,83,87
51,82,83,88
54,87,88,89
57,76,76,78
60,82,83,88
63,82,83,85
66,109,105,111
69,117,106,119
72,114,98,116
75,105,105,114
78,92,93,96
81,97,98,100
84,95,96,97
87,97,91,99
90,94,95,96
93,93,93,99
96,99,100,101
99,101,93,103
102,97,98,103
105,93,94,108
108,125,109,127
111,117,111,119
114,104,105,106
117,101,102,106
120,117,116,119
123,119,120,130
126,105,106,119
