1,40796,39461,45214
3,13528,13110,14392
6,7120,6659,7894
9,4835,4393,5750
12,3786,3580,3985
15,3076,2840,3262
18,2816,2581,3082
21,2319,2198,2476
24,2291,2033,2591
27,1857,1765,2354
30,1843,1606,2010
33,1583,1525,1923
36,1468,1445,1686
39,1381,1341,1633
42,1305,1277,1582
45,1376,1238,1474
48,1346,1220,1476
51,1289,1118,1381
54,1029,1014,1240
57,1091,993,1249
60,1089,1004,1178
63,1028,952,1069
66,1081,1018,1258
69,1027,974,1252
72,1143,983,1240
75,1139,1046,1212
78,1161,1021,1192
81,1095,1023,1164
84,1116,1025,1136
87,1038,979,1118
90,1128,1090,1151
93,1073,1015,1082
96,1036,1014,1087
99,1073,1041,1128
102,1032,992,1051
105,1021,993,1029
108,1054,1001,1063
111,989,971,1001
114,956,957,1028
117,989,977,997
120,974,969,997
123,944,924,958
126,942,933,956
